// --------------------------------
// Hook functions:
// --------------------------------

void MacroMain_OnAdd()
{
	macro_fov_new = macro_fov_real = autocvar_fov;
}

void MacroMain_OnRemove()
{
	macro_fov_new = macro_fov_real = 0;
}

// DrawScoreboard mutator hook
void MacroMain_DrawScoreboard()
{
	entity player = CSQCModel_server2csqc(player_localentnum - 1);

	// update the fov
	// since this modifies menu settings, only make changes while the menu is closed, and revert them once the menu is opened
	// cvars modified here: fov
	// TODO: Achieve this without modifying cvars later on, especially ones used in the menu
	if(autocvar__menu_alpha)
	{
		// if the menu was just opened, read the real cvar, otherwise update it
		if(macro_fov_new)
		{
			cvar_settemp("fov", ftos(macro_fov_real)); // sets autocvar_fov
			localcmd("menu_sync\n"); // make sure the real cvar is seen by the menu
			macro_fov_new = 0;
		}
		else
			macro_fov_real = autocvar_fov;
	}
	else
	{
		// calculate the modified fov
		macro_fov_new = macro_fov_real;
		if(autocvar_cl_macro_fov && player.scale && spectatee_status != -1)
			macro_fov_new *= pow(player.scale, -autocvar_cl_macro_fov);

		// apply the modified fov if it changed
		if(autocvar_fov != macro_fov_new)
			cvar_settemp("fov", ftos(macro_fov_new)); // sets autocvar_fov
	}
}

// DrawViewModel mutator hook
void MacroMain_DrawViewModel(entity viewmodel)
{
	entity player = CSQCModel_server2csqc(player_localentnum - 1);

	// set the scale of the weapon model
	// as the view model is mapped relative to the camera, we don't need to modify viewmodel.scale, only viewmodel.origin
	float myscale = player.scale ? pow(1 - player.scale, autocvar_cl_macro_weapon_scalefactor) : 1;
	viewmodel.origin = autocvar_cl_macro_weapon_offsetfactor * myscale;
}
