REGISTER_MUTATOR(macro, cvar("g_macro"))
{
	MUTATOR_ONADD
	{
		MacroMain_OnAdd();
	}

	MUTATOR_ONREMOVE
	{
		MacroMain_OnRemove();
	}
}

MUTATOR_HOOKFUNCTION(macro, BuildMutatorsString)
{
	M_ARGV(0, string) = strcat(M_ARGV(0, string), ":Macro");
}

MUTATOR_HOOKFUNCTION(macro, BuildMutatorsPrettyString)
{
	M_ARGV(0, string) = strcat(M_ARGV(0, string), ", Micro / Macro");
}

MUTATOR_HOOKFUNCTION(macro, GetPressedKeys)
{
	entity player = M_ARGV(0, entity);
	MacroBot_GetPressedKeys(player);
	return false;
}

MUTATOR_HOOKFUNCTION(macro, PlayerPhysics_PostUpdateStats)
{
	entity player = M_ARGV(0, entity);
	MacroMain_PlayerPhysics_PostUpdateStats(player);
	return false;
}

MUTATOR_HOOKFUNCTION(macro, PlayerPhysics_UpdateStats)
{
	entity player = M_ARGV(0, entity);
	float offset = MacroMain_PlayerPhysics_UpdateStats_Offset(player);
	STAT(MOVEVARS_HIGHSPEED, player) *= offset;
	return false;
}

MUTATOR_HOOKFUNCTION(macro, PlayerJump)
{
	entity player = M_ARGV(0, entity);
	M_ARGV(1, float) *= MacroMain_PlayerJump_Offset(player);
	return false;
}

MUTATOR_HOOKFUNCTION(macro, Damage_Calculate)
{
	entity player_attacker = M_ARGV(1, entity);
	entity player_target = M_ARGV(2, entity);
	vector player_force = M_ARGV(3, vector);
	float player_damage_take = M_ARGV(4, float); // health damage
	float player_damage_save = M_ARGV(5, float); // armor damage
	float player_deathtype = M_ARGV(6, float);
	float player_damage = M_ARGV(7, float);
	vector newdamage = MacroMain_Damage_Calculate_Damage(player_attacker, player_target, player_force, player_damage_take, player_damage_save, player_deathtype, player_damage);
	M_ARGV(4, float) = newdamage.x; // health damage
	M_ARGV(5, float) = newdamage.y; // armor damage
	return false;
}

MUTATOR_HOOKFUNCTION(macro, CopyBody)
{
	entity player = M_ARGV(0, entity);
	entity body = M_ARGV(1, entity);
	MacroMain_CopyBody(player, body);
	return false;
}

MUTATOR_HOOKFUNCTION(macro, ForbidWeaponUse)
{
	entity player = M_ARGV(0, entity);
	return MacroMain_ForbidWeaponUse_Forbid(player);
}
