// --------------------------------
// Hook functions:
// --------------------------------

void RorreMain_OnAdd()
{
	precache_model("models/rorre.iqm");
}

void RorreMain_OnRemove()
{

}

// draw the rorre model
void Rorre_Model_Draw(entity this)
{
	if(time > rorre_delay)
	{
		// only if the player is not looking directly and is far enough
		if(autocvar_cl_rorre_move_probability * rorre_mana >= random())
		if(vdist(view_origin - rorre_origin, >=, autocvar_cl_rorre_move_dist))
		if(!projected_on_screen(project_3d_to_2d(this.origin)))
		if(!projected_on_screen(project_3d_to_2d(rorre_origin)))
		{
			// move to the last valid player position
			this.origin = rorre_origin;
			this.angles = rorre_angles;

			// update the last recorded player position
			rorre_origin = view_origin;
			rorre_angles = vec3(0, view_angles.y, 0);
		}

		rorre_delay = time + autocvar_cl_rorre_move_time;
	}

	// handle fluid particles
	if(time > rorre_effect_time)
	{
		pointparticles(EFFECT_TR_BLOOD, this.origin, '0 0 0', RORRE_EFFECT_AMOUNT * rorre_mana);
		rorre_effect_time = time + (EFFECT_DELAY / rorre_mana);
	}

	this.alpha = rorre_mana;
}

// DrawScoreboard mutator hook
void RorreMain_DrawScoreboard()
{
	// set full mana when the right conditions are met, otherwise decrease mana over time
	if(STAT(HEALTH) * STAT(ARMOR) == autocvar_cl_rorre_mana_trigger)
		rorre_mana = 1;
	else
		rorre_mana = max(0, rorre_mana - (autocvar_cl_rorre_mana_time * frametime));

	// increase insanity if the player is standing close to and looking at rorre
	if (rorre_mana > 0 && projected_on_screen(project_3d_to_2d(rorre.origin)))
	{
		float new_insanity = min(1, rorre_insanity + ((autocvar_cl_rorre_insanity_dist / max(1, vlen(view_origin - rorre.origin))) * rorre_mana * frametime));

		// apply sanity effects whenever the value reaches a milestone
		if(new_insanity >= 0.125 && rorre_insanity < 0.125)
			localcmd(strcat(autocvar_cl_rorre_command_1, "\n"));
		if(new_insanity >= 0.25 && rorre_insanity < 0.25)
			localcmd(strcat(autocvar_cl_rorre_command_2, "\n"));
		if(new_insanity >= 0.375 && rorre_insanity < 0.375)
			localcmd(strcat(autocvar_cl_rorre_command_3, "\n"));
		if(new_insanity >= 0.5 && rorre_insanity < 0.5)
			localcmd(strcat(autocvar_cl_rorre_command_4, "\n"));
		if(new_insanity >= 0.625 && rorre_insanity < 0.625)
			localcmd(strcat(autocvar_cl_rorre_command_5, "\n"));
		if(new_insanity >= 0.75 && rorre_insanity < 0.75)
			localcmd(strcat(autocvar_cl_rorre_command_6, "\n"));
		if(new_insanity >= 0.875 && rorre_insanity < 0.875)
			localcmd(strcat(autocvar_cl_rorre_command_7, "\n"));
		if(new_insanity >= 1)
			localcmd(strcat(autocvar_cl_rorre_command_8, "\n"));

		// set the new insanity
		rorre_insanity = new_insanity;
	}

	// spawn or remove rorre
	if(!rorre && rorre_mana > 0)
	{
		rorre = spawn();
		_setmodel(rorre, "models/rorre.iqm");
		rorre.skin = 0;
		rorre.movetype = MOVETYPE_NONE;
		rorre.solid = SOLID_NOT;
		rorre.effects |= EF_FULLBRIGHT;
		rorre.drawmask = MASK_NORMAL;
		rorre.draw = Rorre_Model_Draw;
		rorre.frame = 0;
		rorre.scale = autocvar_cl_rorre_scale;
		IL_PUSH(g_drawables, rorre);

		// set initial position
		rorre_origin = view_origin;
		rorre_angles = vec3(0, view_angles.y, 0);

		// loop sound
		if(autocvar_cl_rorre_sound > 0)
			loopsound(rorre, CH_TRIGGER_SINGLE, SND_RORRE, VOL_BASE * autocvar_cl_rorre_sound, ATTEN_STATIC);
	}
	else if(rorre && rorre_mana <= 0)
	{
		delete(rorre);
		rorre = NULL;
	}
}
