REGISTER_MUTATOR(voretournament, cvar("g_voretournament"))
{
	return false;
}

MUTATOR_HOOKFUNCTION(voretournament, SetModname)
{
	M_ARGV(0, string) = "VoreTournament";
	return true;
}

MUTATOR_HOOKFUNCTION(voretournament, ClientConnect)
{
	// read mod specific bot skills
	entity this = M_ARGV(0, entity);
	int prio = 18; // this must match its initial value plus the count of all READSKILL calls before it (see bot.qc)
	READSKILL(bot_thinkpred, 1, 0); // pred think skill
	READSKILL(bot_thinkprey, 1, 0); // prey think skill
	READSKILL(bot_likepred, 1, 0); // pred like skill
	READSKILL(bot_likeprey, 1, 0); // prey like skill
	this.bot_thinkpred = bound(-10, this.bot_thinkpred, 10);
	this.bot_thinkprey = bound(-10, this.bot_thinkprey, 10);
	this.bot_likepred = bound(0, this.bot_likepred, 1);
	this.bot_likeprey = bound(0, this.bot_likeprey, 1);
	return false;
}
